{
    "photos": {
        "page": 1,
        "pages": 1365,
        "perpage": 100,
        "total": 136500,
        "photo": [
            {
                "id": "51346271990",
                "owner": "41018639@N05",
                "secret": "f3d07f4f94",
                "server": "65535",
                "farm": 66,
                "title": "",
                "ispublic": 1,
                "isfriend": 0,
                "isfamily": 0
            }
        ]   
    }
}
